{
    "meta": {
        "count": 6578
    },
    "links": {
        "first": "/api/insights/v1/system/?hits=all&limit=20&offset=0&sort=-last_seen",
        "next": "/api/insights/v1/system/?hits=all&limit=20&offset=20&sort=-last_seen",
        "previous": "/api/insights/v1/system/?hits=all&limit=20&offset=0&sort=-last_seen",
        "last": "/api/insights/v1/system/?hits=all&limit=20&offset=6558&sort=-last_seen"
    },
    "data": [
        {
            "system_uuid": "test123123123",
            "display_name": "test-pakotvan-rhel88-verify-deadline",
            "last_seen": "2022-11-29T23:20:07.774722Z",
            "stale_at": "2022-12-01T01:20:06Z",
            "hits": 0,
            "critical_hits": 0,
            "important_hits": 0,
            "moderate_hits": 0,
            "low_hits": 0,
            "incident_hits": 0,
            "all_pathway_hits": 0,
            "pathway_filter_hits": 0,
            "rhel_version": "8.8"
        },
        {
            "system_uuid": "test1231231231",
            "display_name": "psuba-rhel88-verify-bz",
            "last_seen": "2022-11-29T22:44:46.351327Z",
            "stale_at": "2022-11-30T20:30:07Z",
            "hits": 0,
            "critical_hits": 0,
            "important_hits": 0,
            "moderate_hits": 0,
            "low_hits": 0,
            "incident_hits": 0,
            "all_pathway_hits": 0,
            "pathway_filter_hits": 0,
            "rhel_version": "8.8"
        },
        {
            "system_uuid": "test1231231232",
            "display_name": "IQE-source-device",
            "last_seen": "2022-11-29T22:34:33.281850Z",
            "stale_at": "2260-01-01T00:00:00Z",
            "hits": 1,
            "critical_hits": 0,
            "important_hits": 0,
            "moderate_hits": 1,
            "low_hits": 0,
            "incident_hits": 0,
            "all_pathway_hits": 0,
            "pathway_filter_hits": 1,
            "rhel_version": "8.5"
        },
        {
            "system_uuid": "test1231231233",
            "display_name": "iqe-setup-device-85",
            "last_seen": "2022-11-29T22:34:32.461586Z",
            "stale_at": "2260-01-01T00:00:00Z",
            "hits": 1,
            "critical_hits": 0,
            "important_hits": 0,
            "moderate_hits": 1,
            "low_hits": 0,
            "incident_hits": 0,
            "all_pathway_hits": 0,
            "pathway_filter_hits": 1,
            "rhel_version": "8.5"
        },
        {
            "system_uuid": "test1231231234",
            "display_name": "localhost.localdomain",
            "last_seen": "2022-11-29T22:34:07.122576Z",
            "stale_at": "2260-01-01T00:00:00Z",
            "hits": 1,
            "critical_hits": 0,
            "important_hits": 0,
            "moderate_hits": 1,
            "low_hits": 0,
            "incident_hits": 0,
            "all_pathway_hits": 0,
            "pathway_filter_hits": 1,
            "rhel_version": "8.4"
        },
        {
            "system_uuid": "test1231231235",
            "display_name": "dl-test-image-85-C-1",
            "last_seen": "2022-11-29T22:33:39.016889Z",
            "stale_at": "2260-01-01T00:00:00Z",
            "hits": 1,
            "critical_hits": 0,
            "important_hits": 0,
            "moderate_hits": 1,
            "low_hits": 0,
            "incident_hits": 0,
            "all_pathway_hits": 0,
            "pathway_filter_hits": 1,
            "rhel_version": "8.5"
        },
        {
            "system_uuid": "test1231231236",
            "display_name": "rhiqe-e2e-8536b5d6-9564-4e3b-ad17-96475b98d0fe.test",
            "last_seen": "2022-11-29T22:07:29.425643Z",
            "stale_at": "2022-12-01T03:07:29.154841Z",
            "hits": 2,
            "critical_hits": 0,
            "important_hits": 0,
            "moderate_hits": 1,
            "low_hits": 1,
            "incident_hits": 0,
            "all_pathway_hits": 0,
            "pathway_filter_hits": 2,
            "rhel_version": "8.6"
        },
        {
            "system_uuid": "test1231231237",
            "display_name": "rhiqe-e2e-48e73511-76c8-49c6-93ce-888ff1572498.test",
            "last_seen": "2022-11-29T22:07:23.972673Z",
            "stale_at": "2022-12-01T03:07:23.775768Z",
            "hits": 2,
            "critical_hits": 0,
            "important_hits": 0,
            "moderate_hits": 1,
            "low_hits": 1,
            "incident_hits": 0,
            "all_pathway_hits": 0,
            "pathway_filter_hits": 2,
            "rhel_version": "8.6"
        },
        {
            "system_uuid": "test1231231238",
            "display_name": "rhiqe-e2e-59f4df54-de7f-462b-965d-ee35828e4b7c.test",
            "last_seen": "2022-11-29T22:07:19.047453Z",
            "stale_at": "2022-12-01T03:07:18.800104Z",
            "hits": 2,
            "critical_hits": 0,
            "important_hits": 0,
            "moderate_hits": 1,
            "low_hits": 1,
            "incident_hits": 0,
            "all_pathway_hits": 0,
            "pathway_filter_hits": 2,
            "rhel_version": "8.6"
        },
        {
            "system_uuid": "test1231231239",
            "display_name": "rhiqe-e2e-c01cfa26-f1c2-4d16-89f3-4366e8a1cf86.test",
            "last_seen": "2022-11-29T22:07:13.955070Z",
            "stale_at": "2022-12-01T03:07:13.715794Z",
            "hits": 2,
            "critical_hits": 0,
            "important_hits": 0,
            "moderate_hits": 1,
            "low_hits": 1,
            "incident_hits": 0,
            "all_pathway_hits": 0,
            "pathway_filter_hits": 2,
            "rhel_version": "8.6"
        },
        {
            "system_uuid": "test12312312310",
            "display_name": "rhiqe-e2e-07dc91a8-c8cb-473d-9720-521ac24ab10c.test",
            "last_seen": "2022-11-29T22:07:06.697400Z",
            "stale_at": "2022-12-01T03:07:06.447868Z",
            "hits": 2,
            "critical_hits": 0,
            "important_hits": 0,
            "moderate_hits": 1,
            "low_hits": 1,
            "incident_hits": 0,
            "all_pathway_hits": 0,
            "pathway_filter_hits": 2,
            "rhel_version": "8.6"
        },
        {
            "system_uuid": "test12312312311",
            "display_name": "rhiqe-e2e-ca642f01-db44-41e8-8ebc-85625bf10819.test",
            "last_seen": "2022-11-29T22:06:59.396404Z",
            "stale_at": "2022-12-01T03:06:59.197693Z",
            "hits": 2,
            "critical_hits": 0,
            "important_hits": 0,
            "moderate_hits": 1,
            "low_hits": 1,
            "incident_hits": 0,
            "all_pathway_hits": 0,
            "pathway_filter_hits": 2,
            "rhel_version": "8.6"
        },
        {
            "system_uuid": "test12312312312",
            "display_name": "rhiqe-e2e-96fc2199-b777-47eb-ac3a-81254875b39b.test",
            "last_seen": "2022-11-29T22:06:51.750480Z",
            "stale_at": "2022-12-01T03:06:51.572985Z",
            "hits": 2,
            "critical_hits": 0,
            "important_hits": 0,
            "moderate_hits": 1,
            "low_hits": 1,
            "incident_hits": 0,
            "all_pathway_hits": 0,
            "pathway_filter_hits": 2,
            "rhel_version": "8.6"
        },
        {
            "system_uuid": "test12312312313",
            "display_name": "rhiqe-e2e-2b05bc22-edba-471e-80ab-d9c1e6a90144.test",
            "last_seen": "2022-11-29T22:06:44.475088Z",
            "stale_at": "2022-12-01T03:06:44.203707Z",
            "hits": 2,
            "critical_hits": 0,
            "important_hits": 0,
            "moderate_hits": 1,
            "low_hits": 1,
            "incident_hits": 0,
            "all_pathway_hits": 0,
            "pathway_filter_hits": 2,
            "rhel_version": "8.6"
        },
        {
            "system_uuid": "test12312312314",
            "display_name": "rhiqe-e2e-b5177ff1-053a-4443-8026-161ca062900b.test",
            "last_seen": "2022-11-29T22:06:37.164861Z",
            "stale_at": "2022-12-01T03:06:36.888358Z",
            "hits": 2,
            "critical_hits": 0,
            "important_hits": 0,
            "moderate_hits": 1,
            "low_hits": 1,
            "incident_hits": 0,
            "all_pathway_hits": 0,
            "pathway_filter_hits": 2,
            "rhel_version": "8.6"
        },
        {
            "system_uuid": "test12312312315",
            "display_name": "rhiqe-e2e-d1a4d9c3-ac91-4483-beb5-feff7f43bfed.test",
            "last_seen": "2022-11-29T22:06:31.823137Z",
            "stale_at": "2022-12-01T03:06:31.626314Z",
            "hits": 2,
            "critical_hits": 0,
            "important_hits": 0,
            "moderate_hits": 1,
            "low_hits": 1,
            "incident_hits": 0,
            "all_pathway_hits": 0,
            "pathway_filter_hits": 2,
            "rhel_version": "8.6"
        },
        {
            "system_uuid": "test12312312316",
            "display_name": "rhiqe-e2e-4dbd9adf-947a-40f4-84bf-854979e8e4b9.test",
            "last_seen": "2022-11-29T22:06:26.450645Z",
            "stale_at": "2022-12-01T03:06:26.272727Z",
            "hits": 2,
            "critical_hits": 0,
            "important_hits": 0,
            "moderate_hits": 1,
            "low_hits": 1,
            "incident_hits": 0,
            "all_pathway_hits": 0,
            "pathway_filter_hits": 2,
            "rhel_version": "8.6"
        },
        {
            "system_uuid": "test12312312317",
            "display_name": "rhiqe-e2e-c9064767-6e73-4c2b-a905-a111e4ca641b.test",
            "last_seen": "2022-11-29T22:06:21.397059Z",
            "stale_at": "2022-12-01T03:06:21.202218Z",
            "hits": 2,
            "critical_hits": 0,
            "important_hits": 0,
            "moderate_hits": 1,
            "low_hits": 1,
            "incident_hits": 0,
            "all_pathway_hits": 0,
            "pathway_filter_hits": 2,
            "rhel_version": "8.6"
        },
        {
            "system_uuid": "test12312312318",
            "display_name": "rhiqe-e2e-856379d7-29d8-4173-bbeb-199d669792f9.test",
            "last_seen": "2022-11-29T22:06:16.287168Z",
            "stale_at": "2022-12-01T03:06:16.042854Z",
            "hits": 2,
            "critical_hits": 0,
            "important_hits": 0,
            "moderate_hits": 1,
            "low_hits": 1,
            "incident_hits": 0,
            "all_pathway_hits": 0,
            "pathway_filter_hits": 2,
            "rhel_version": "8.6"
        },
        {
            "system_uuid": "test12312312319",
            "display_name": "rhiqe-e2e-d282dbed-0a46-4389-a547-c3a11179bcd0.test",
            "last_seen": "2022-11-29T22:06:11.196327Z",
            "stale_at": "2022-12-01T03:06:10.949461Z",
            "hits": 2,
            "critical_hits": 0,
            "important_hits": 0,
            "moderate_hits": 1,
            "low_hits": 1,
            "incident_hits": 0,
            "all_pathway_hits": 0,
            "pathway_filter_hits": 2,
            "rhel_version": "8.6"
        }
    ]
}